*** Life<ConwayCell> 9x11 ***

Generation = 0, Population = 17.
*.......*..
.*.*......*
*.**.......
...........
.*.........
.....*....*
*...*......
......*....
.*..*...*..

Generation = 1, Population = 10.
...........
**.*.......
.***.......
.**........
...........
...........
.....*.....
.....*.....
...........

Generation = 2, Population = 6.
...........
**.*.......
...*.......
.*.*.......
...........
...........
...........
...........
...........

Generation = 3, Population = 6.
...........
..*........
**.**......
..*........
...........
...........
...........
...........
...........

*** Life<ConwayCell> 5x8 ***

Generation = 0, Population = 5.
*.......
.....*..
........
........
...*..**

Generation = 1, Population = 0.
........
........
........
........
........

Generation = 2, Population = 0.
........
........
........
........
........

Generation = 3, Population = 0.
........
........
........
........
........

*** Life<ConwayCell> 10x6 ***

Generation = 0, Population = 2.
..*...
......
......
......
......
......
......
.....*
......
......

Generation = 3, Population = 0.
......
......
......
......
......
......
......
......
......
......

Generation = 6, Population = 0.
......
......
......
......
......
......
......
......
......
......

*** Life<ConwayCell> 9x5 ***

Generation = 0, Population = 1.
.....
.....
.....
.....
.....
.....
..*..
.....
.....

Generation = 1, Population = 0.
.....
.....
.....
.....
.....
.....
.....
.....
.....

Generation = 2, Population = 0.
.....
.....
.....
.....
.....
.....
.....
.....
.....

Generation = 3, Population = 0.
.....
.....
.....
.....
.....
.....
.....
.....
.....

Generation = 4, Population = 0.
.....
.....
.....
.....
.....
.....
.....
.....
.....

Generation = 5, Population = 0.
.....
.....
.....
.....
.....
.....
.....
.....
.....

*** Life<ConwayCell> 10x12 ***

Generation = 0, Population = 2.
............
............
............
.....*......
............
............
............
............
............
*...........

Generation = 2, Population = 0.
............
............
............
............
............
............
............
............
............
............

Generation = 4, Population = 0.
............
............
............
............
............
............
............
............
............
............

Generation = 6, Population = 0.
............
............
............
............
............
............
............
............
............
............

Generation = 8, Population = 0.
............
............
............
............
............
............
............
............
............
............

*** Life<ConwayCell> 5x6 ***

Generation = 0, Population = 9.
*...*.
.*....
*.....
*.*...
*.*..*

Generation = 3, Population = 4.
......
**....
**....
......
......

Generation = 6, Population = 4.
......
**....
**....
......
......

Generation = 9, Population = 4.
......
**....
**....
......
......

*** Life<ConwayCell> 12x14 ***

Generation = 0, Population = 8.
..............
..............
...*..........
.......*......
.......*.....*
..........*...
..............
..............
..............
..............
....**........
.*............

Generation = 3, Population = 0.
..............
..............
..............
..............
..............
..............
..............
..............
..............
..............
..............
..............

Generation = 6, Population = 0.
..............
..............
..............
..............
..............
..............
..............
..............
..............
..............
..............
..............

*** Life<ConwayCell> 13x14 ***

Generation = 0, Population = 7.
..............
...........*..
.*............
..............
...*..........
.....*........
..............
..............
..............
..............
....*.....*...
..*...........
..............

Generation = 3, Population = 0.
..............
..............
..............
..............
..............
..............
..............
..............
..............
..............
..............
..............
..............

Generation = 6, Population = 0.
..............
..............
..............
..............
..............
..............
..............
..............
..............
..............
..............
..............
..............

Generation = 9, Population = 0.
..............
..............
..............
..............
..............
..............
..............
..............
..............
..............
..............
..............
..............

Generation = 12, Population = 0.
..............
..............
..............
..............
..............
..............
..............
..............
..............
..............
..............
..............
..............

*** Life<ConwayCell> 11x15 ***

Generation = 0, Population = 8.
...............
...............
..*............
..**...........
*..*.*.........
...............
...............
...............
...............
...............
.*..*..........

Generation = 3, Population = 4.
...............
...............
...............
***............
..*............
...............
...............
...............
...............
...............
...............

Generation = 6, Population = 6.
...............
...............
.**............
*..*...........
.**............
...............
...............
...............
...............
...............
...............

Generation = 9, Population = 6.
...............
...............
.**............
*..*...........
.**............
...............
...............
...............
...............
...............
...............

*** Life<ConwayCell> 8x11 ***

Generation = 0, Population = 14.
....*......
.**.*.....*
.**........
..*..*.....
*.**.*.....
.....*.....
...........
...........

Generation = 1, Population = 10.
...*.......
.**........
...........
....*......
.***.**....
....*......
...........
...........

Generation = 2, Population = 13.
..*........
..*........
...........
..****.....
..**.*.....
..****.....
...........
...........

Generation = 3, Population = 10.
...........
...........
..*.*......
..*..*.....
.*....*....
..*..*.....
...**......
...........

Generation = 4, Population = 15.
...........
...........
...*.......
.***.*.....
.**..**....
..****.....
...**......
...........

Generation = 5, Population = 11.
...........
...........
...**......
.*.*.**....
......*....
.*....*....
..*..*.....
...........

Generation = 6, Population = 13.
...........
...........
..****.....
..**.**....
..*...**...
.....**....
...........
...........
